Population Dynamics of Nuuk – Emil Nikki Malta
…
In this post, I’ll walk you through how I would go about analyzing the population structure of Nuuk, using R and the Tidyverse.

Data import

Statistics Greenland maintains a census table on the population of Nuuk, updated once a year. It’s available through the Statbank here. While I could go ahead and download the data from their site, it’s much easier to query the API from R instead.

I wrote an API wrapper for work few years ago, while I still worked full time at Stats Greenland. This was written to speed up my workflow, when working with Statbank data in R, and was mostly for internal use. We ended up publishing it on our Github.

Knowing that the Table ID for the data I’m interested in is "BEESTNUK", I can fetch the data like this:

library(statgl)

statgl_fetch("BEESTNUK")

# A tibble: 31 × 2
   time  value
   <chr> <int>
 1 1994  12483
 2 1995  12723
 3 1996  12882
 4 1997  12909
 5 1998  13024
 6 1999  13169
 7 2000  13445
 8 2001  13649
 9 2002  13884
10 2003  13884
# ℹ 21 more rows

By default, it’s going to give me all values in the mandatory variables, which in this case is time. I can explore what options I have for querying this table by calling statgl_meta("BEESTNUK"), and once I know what I need, I can make a query that looks like this:

nuk_raw <- statgl_fetch(
  "BEESTNUK", age = 0:99, citydistrict = c(1:4, 9),
  `place of birth` = c("N", "S"), gender = c("M", "K")
)

nuk_raw

# A tibble: 62,000 × 6
   age   citydistrict `place of birth` gender time  value
   <chr> <chr>        <chr>            <chr>  <chr> <int>
 1 0     Nuuk         Greenland        Men    1994     63
 2 0     Nuuk         Greenland        Men    1995     75
 3 0     Nuuk         Greenland        Men    1996     71
 4 0     Nuuk         Greenland        Men    1997     57
 5 0     Nuuk         Greenland        Men    1998     78
 6 0     Nuuk         Greenland        Men    1999     65
 7 0     Nuuk         Greenland        Men    2000     50
 8 0     Nuuk         Greenland        Men    2001     47
 9 0     Nuuk         Greenland        Men    2002     50
10 0     Nuuk         Greenland        Men    2003     54
# ℹ 61,990 more rows

This is basically a count table. Reading the first row tells me that on Jan. 1st 1994, there were 63 boys aged 0, who were born in Greenland, and lived in the Nuuk city district. That number was 75 the year after and so on.

Tidy

When tidying data, I first want to make sure that every column is a variable. That seems to be the case in this data, so my next instinct is to make sure that every row is an observation. In other words: I want to make sure that every row in this dataset is a person.

There is a cool function in the tidyr package called uncount, which repeats rows in a dataset according to a weighting variable. This means that I can turn the 63 boys I talked about earlier, into 63 rows in the dataset:

library(tidyverse)

nuk_raw %>% uncount(value)

# A tibble: 484,724 × 5
   age   citydistrict `place of birth` gender time 
   <chr> <chr>        <chr>            <chr>  <chr>
 1 0     Nuuk         Greenland        Men    1994 
 2 0     Nuuk         Greenland        Men    1994 
 3 0     Nuuk         Greenland        Men    1994 
 4 0     Nuuk         Greenland        Men    1994 
 5 0     Nuuk         Greenland        Men    1994 
 6 0     Nuuk         Greenland        Men    1994 
 7 0     Nuuk         Greenland        Men    1994 
 8 0     Nuuk         Greenland        Men    1994 
 9 0     Nuuk         Greenland        Men    1994 
10 0     Nuuk         Greenland        Men    1994 
# ℹ 484,714 more rows
…
