Wright-Fisher simulations in R – Emil Nikki Malta
…
Now let’s make 100 simulations for each of these pairs:

wf_sims <- crossing(sim = 1:100, p_init = c(.1, .5, .9), n = c(5, 50, 500)) %>% 
  group_by(sim, p_init, n) %>% 
  reframe(
    p = wf_sim_tidy(p = p_init, n = n),
    t = seq_along(p)
  )

wf_sims

# A tibble: 45,900 × 5
     sim p_init     n     p     t
   <int>  <dbl> <dbl> <dbl> <int>
 1     1    0.1     5   0.1     1
 2     1    0.1     5   0.1     2
 3     1    0.1     5   0.1     3
 4     1    0.1     5   0.2     4
 5     1    0.1     5   0.2     5
 6     1    0.1     5   0.3     6
 7     1    0.1     5   0.2     7
 8     1    0.1     5   0.3     8
 9     1    0.1     5   0.6     9
10     1    0.1     5   0.4    10
# ℹ 45,890 more rows
…
